{"count":1118,"next":"https://pokeapi.co/api/v2/pokemon?offset=45&limit=3","previous":"https://pokeapi.co/api/v2/pokemon?offset=39&limit=3","results":[{"name":"oddish","url":"https://pokeapi.co/api/v2/pokemon/43/"},{"name":"gloom","url":"https://pokeapi.co/api/v2/pokemon/44/"},{"name":"vileplume","url":"https://pokeapi.co/api/v2/pokemon/45/"}]}